{
  "events": [
    {
      "location": "San Francisco, CA",
      "date": "1 maja",
      "map": "img/map-ca.png"
    },
    {
      "location": "Austin, TX",
      "date": "15 maja",
      "map": "img/map-tx.png"
    },
    {
      "location": "Nowy Jork, NY",
      "date": "30 maja",
      "map": "img/map-ny.png"
    }
  ]
}